{
  "cviceni": {
    "version": {
      "global": "<%= version %>",
      "content": 1
    },
    "katalog": [
      "test"
    ],
    "language": "cs",
    "slug": "co-chteli-cerni-panteri",
    "nazev": "Co chtěli Černí panteři?",
    "autor": [
      "Andrea Průchová"
    ],
    "casovaOsa": {
      "letopocet": [
        1969,
        1970
      ],
      "epocha": {
        "svetova": [
          "Studená válka a rozpad koloniálních říší"
        ]
      }
    },
    "klicovaSlova": [
      "rasismus",
      "propaganda",
      "symboly",
      "dobové perspektivy",
      "klíčové detaily"
    ],
    "anotace": {
      "ucitel": "Žáci se prostřednictvím trojice politických plakátů vytvořených umělcem Emorym Douglasem seznamují s ideologií afroamerického hnutí Černých panterů. Analýza plakátů vede žáky k reflexi požadavků solidarity a svobody, ale také upozorňuje na využití zbraní k dosažení těchto cílů. Cvičení lze využít k diskuzi o problematice lidskoprávního hnutí Afroameričanů na přelomu 60. a 70. let 20. století a k představení různých pojetí, jimiž bylo toto hnutí rámováno (M. L. King, Malcolm X).",
      "verejna": "Podívejte se na plakáty hnutí Černých panterů, které bylo populární mezi afroamerickou komunitou v USA na přelomu 60. a 70. let 20. století. Co ilustrace známého umělce Emoryho Douglase vypovídají o cílech tohoto hnutí?"
    },
    "obtiznost": "nizka",
    "trvani": 15,
    "funkce": [
      "lupa",
      "cteni",
      "text",
      "svg",
      "znacky"
    ],
    "pdf": {
      "doporucenyPostup": "co-chteli-cerni-panteri.pdf"
    },
    "uvodniObrazek": "co-chteli-cerni-panteri/pic-00-1024h.jpg",
    "id": 108
  },
  "slajd": [
    {
      "zadani": {
        "hlavni": "Prohlédněte si fotogalerii plakátů hnutí Černých panterů, které působilo v USA mezi lety 1966 a 1982.",
        "rozsirujici": ""
      },
      "napoveda": {
        "aktivity": [
          "lupa"
        ],
        "text": "Při kliknutí levým tlačítkem do obrazu lupa přiblíží část obrazu ve výřezu."
      },
      "prameny": [
        "co-chteli-cerni-panteri/pic-00-1024h.jpg",
        "co-chteli-cerni-panteri/pic-01-810w.jpg",
        "co-chteli-cerni-panteri/pic-02-1024h.jpg"
      ],
      "popisky": [
        "Plakáty Emoryho Douglase z let 1969–1970. Zdroj: Sam Durant (ed.): Black Panther: The Revolutionary Art of Emory Douglas, New York 2007"
      ]
    },
    {
      "zadani": {
        "hlavni": "Označte důležité prvky na plakátech a popište je.",
        "rozsirujici": ""
      },
      "napoveda": {
        "aktivity": [
          "svg"
        ],
        "text": "Kliknutím na snímek levým tlačítkem myši označujete bod. Nakliknutím na bod pravým tlačítkem otevřete menu s nabídkou úkonů: změnit barvu bodu, (T) doplnit textový komentář, (X) smazat nakliknutý objekt."
      },
      "svg": {
        "soubory": [
          {
            "id": "svg-1",
            "soubor": "co-chteli-cerni-panteri/pic-00-1024h.jpg",
            "funkce": [
              "text",
              "znacky"
            ]
          },
          {
            "id": "svg-2",
            "soubor": "co-chteli-cerni-panteri/pic-01-810w.jpg",
            "funkce": [
              "text",
              "znacky"
            ]
          },
          {
            "id": "svg-3",
            "soubor": "co-chteli-cerni-panteri/pic-02-1024h.jpg",
            "funkce": [
              "text",
              "znacky"
            ]
          }
        ]
      },
      "popisky": [
        "„Útok na jednoho je útokem proti všem. Zotročení černošského lidu musí přestat! Za použití jakýchkoliv prostředků!“ (cca 1970)",
        "„Všechna moc lidu.“ (1969)",
        "„Afroamerická solidarita s utlačovaným lidem po celém světě.“ (1969)"
      ]
    },
    {
      "zadani": {
        "hlavni": "Jakou zprávu plakáty předávají?",
        "rozsirujici": "Přiřaďte ke každému plakátu alespoň jednu charakteristiku."
      },
      "napoveda": {
        "aktivity": [
          "razeni",
          "svg"
        ],
        "text": "Pomocí drag and drop přesouvejte položky z nabídky do obrázku.<br> Do obrázku můžete také kreslit a zapisovat další informace."
      },
      "svg": {
        "nastaveni": {
          "layout": "vertikalni"
        },
        "pretahovani": {
          "id": "pretahovani-1",
          "items": [
            {
              "objekt": "bezpráví se děje celosvětově",
              "medium": "tag"
            },
            {
              "objekt": "lidé by si měli vládnout sami",
              "medium": "tag"
            },
            {
              "objekt": "ženy jsou důležitými účastnicemi boje za práva černochů",
              "medium": "tag"
            },
            {
              "objekt": "zbraně jsou důležitou součástí boje za práva černochů",
              "medium": "tag"
            },
            {
              "objekt": "černá barva symbolizuje eleganci a nebezpečí",
              "medium": "tag"
            }
          ]
        },
        "soubory": [
          {
            "id": "svg-4",
            "soubor": "co-chteli-cerni-panteri/pic-00-1024h.jpg",
            "funkce": [
              "text",
              "znacky"
            ],
            "duplikovat": ["svg-1"],
            "drop": true
          },
          {
            "id": "svg-5",
            "soubor": "co-chteli-cerni-panteri/pic-01-810w.jpg",
            "funkce": [
              "text",
              "znacky"
            ],
            "duplikovat": ["svg-2"],
            "drop": true
          },
          {
            "id": "svg-6",
            "soubor": "co-chteli-cerni-panteri/pic-02-1024h.jpg",
            "funkce": [
              "text",
              "znacky"
            ],
            "duplikovat": ["svg-3"],
            "drop": true
          }
        ]
      },
      "popisky": [
        "„Útok na jednoho je útokem proti všem. Zotročení černošského lidu musí přestat! Za použití jakýchkoliv prostředků!“ (cca 1970)",
        "„Všechna moc lidu.“ (1969)",
        "„Afroamerická solidarita s utlačovaným lidem po celém světě.“ (1969)"
      ]
    },
    {
      "zadani": {
        "hlavni": "Zodpovězte otázku.",
        "rozsirujici": ""
      },
      "napoveda": {
        "aktivity": ["text"],
        "text": "Do boxu pro text zapisujete odpověď na otázku, nebo jiný komentář (dle zadání)."
      },
      "uzivatelskyText": {
        "galerie": [
          {
            "typ": "svg",
            "objekt": {
              "id": "svg-4-dup",
              "soubor": "co-chteli-cerni-panteri/pic-00-1024h.jpg",
              "duplikovat": ["svg-4"],
              "funkce": [
                "text",
                "znacky"
              ]
            }
          },
          {
            "typ": "svg",
            "objekt": {
              "id": "svg-5-dup",
              "soubor": "co-chteli-cerni-panteri/pic-01-810w.jpg",
              "duplikovat": ["svg-5"],
              "funkce": [
                "text",
                "znacky"
              ]
            }
          },
          {
            "typ": "svg",
            "objekt": {
              "id": "svg-6-dup",
              "soubor": "co-chteli-cerni-panteri/pic-02-1024h.jpg",
              "duplikovat": ["svg-6"],
              "funkce": [
                "text",
                "znacky"
              ]
            }
          }
        ],
        "otazky": [
          {
            "id": "text-0",
            "zadani": "O co usilovalo hnutí Černých panterů a jakými prostředky?",
            "instrukce": "Myslím si, že…",
            "minDelka": 10,
            "maxDelka": 500
          }
        ]
      }
    }
  ]
}
