{
  "cviceni": {
    "version": {
      "global": "<%= version %>",
      "content": 3
    },
    "katalog": [
      "test",
      "public"
    ],
    "language": "cs",
    "slug": "co-se-stalo-v-abertamech",
    "nazev": "Co se stalo v Abertamech?",
    "autor": ["Terezie Vávrová"],
    "klicovaSlova": [
      "důsledky druhé světové války",
      "dějiny ve veřejném prostoru",
      "Sudety",
      "trvání a změna",
      "tvoříme"
    ],
    "anotace": {
      "ucitel": "Cvičení se zaměřuje na srovnání čtyř fotografií, jež zachycují část náměstí krušnohorské obce Abertamy od roku 1912 až po rok 2004. Žáci popisují historické proměny místa a zamýšlejí se nad tím, jaké události měly na jeho podobu vliv. Závěry z pátrání shrnou formou příběhu.",
      "verejna": "Čtyři fotky jednoho místa, čtyři zcela odlišné historické momenty. Dokážete je spojit do jednoho příběhu? Vyzkoušejte hru „najdi co nejvíce rozdílů a podobností” a možná přitom zjistíte, jakým vývojem prošlo české pohraničí ve 20. století."
    },
    "trvani": 35,
    "funkce": ["lupa", "text", "svg", "razeni"],
    "uvodniObrazek": "co-se-stalo-v-abertamech/pic-02-1280w.jpg",
    "pdf": {
      "doporucenyPostup": "co-se-stalo-v-abertamech.pdf"
    },
    "id": 41
  },
  "slajd": [
    {
      "zadani": {
        "hlavni": "Na fotografiích vidíte stejné místo. Prohlédněte si fotografie.",
        "rozsirujici": ""
      },
      "napoveda": {
        "aktivity": ["lupa"],
        "text": "Při kliknutí levým tlačítkem do obrazu lupa přiblíží část obrazu ve výřezu."
      },
      "prameny": [
        "co-se-stalo-v-abertamech/pic-00-1280w.jpg",
        "co-se-stalo-v-abertamech/pic-01-1280w.jpg",
        "co-se-stalo-v-abertamech/pic-02-1280w.jpg",
        "co-se-stalo-v-abertamech/pic-03-1280w.jpg"
      ],
      "popisky": [
        "Náměstí obce Abertamy (Abertham) v Krušných horách. Zdroj: Antikomplex, z.s."
      ]
    },
    {
      "class": ["half-slide-previous", "col-2"],
      "zadani": {
        "hlavni": "Hledejte rozdíly.",
        "rozsirujici": "Červeně ve fotografiích označte, co se změnilo, a modře, co zůstalo stejné. Popište označené body."
      },
      "napoveda": {
        "aktivity": ["svg"],
        "text": "Kliknutím na snímek levým tlačítkem myši označujete bod. Nakliknutím na bod pravým tlačítkem otevřete menu s nabídkou úkonů: změnit barvu bodu, (T) doplnit textový komentář, (X) smazat nakliknutý objekt."
      },
      "svg": {
        "soubory": [
          {
            "id": "svg-1",
            "soubor": "co-se-stalo-v-abertamech/pic-00-1024w.jpg",
            "funkce": ["text", "znacky"]
          },
          {
            "id": "svg-2",
            "soubor": "co-se-stalo-v-abertamech/pic-01-1024w.jpg",
            "funkce": ["text", "znacky"]
          },
          {
            "id": "svg-3",
            "soubor": "co-se-stalo-v-abertamech/pic-03-1024w.jpg",
            "funkce": ["text", "znacky"]
          },
          {
            "id": "svg-4",
            "soubor": "co-se-stalo-v-abertamech/pic-02-1024w.jpg",
            "funkce": ["text", "znacky"]
          }
        ]
      },
      "popisky": [
        "Náměstí obce Abertamy (Abertham) v Krušných horách. Zdroj: Antikomplex, z.s."
      ]
    },
    {
      "class": ["half-slide-active"],
      "zadani": {
        "hlavni": "Jak se místo změnilo?",
        "rozsirujici": ""
      },
      "napoveda": {
        "aktivity": ["text"],
        "text": "Do boxu pro text zapisujete odpověď na otázku, nebo jiný komentář (dle zadání)."
      },
      "uzivatelskyText": {
        "otazky": [
          {
            "id": "text-1",
            "zadani": "Popište tři nejvýraznější rozdíly.",
            "instrukce": "Myslím si, že…",
            "minDelka": 10,
            "maxDelka": 400
          }
        ]
      }
    },
    {
      "class": ["half-slide-previous"],
      "zadani": {
        "hlavni": "Jak se měnily Abertamy?",
        "rozsirujici": "Seřaďte fotografie od nejstarší po nejmladší."
      },
      "napoveda": {
        "aktivity": ["razeni", "text"],
        "text": "Kliknutím na fotografie a tahem myši přesuňte fotografii na požadovanou pozici mezi ostatní položky."
      },
      "razeni": {
        "id": "razeni-1",
        "zpetnaVazba": [
          {
            "podminka": 2,
            "text": "Opravdu? My jsme fotografie uspořádali odlišně.",
            "barva": "color-red"
          },
          {
            "podminka": 1,
            "text": "Jednu fotografii bychom uspořádali odlišně.",
            "barva": "color-orange"
          },
          {
            "podminka": 0,
            "text": "Výtečně. Uspořádali jsme fotografie stejně.",
            "barva": "color-green"
          }
        ],
        "typ": "horizontalni",
        "objekty": [
          {
            "medium": "svg",
            "objekt": {
              "soubor": "co-se-stalo-v-abertamech/pic-00-1024w.jpg",
              "duplikovat": ["svg-1"]
            },
            "spravnaOdpoved": "2"
          },
          {
            "medium": "svg",
            "objekt": {
              "soubor": "co-se-stalo-v-abertamech/pic-01-1024w.jpg",
              "duplikovat": ["svg-2"]
            },
            "spravnaOdpoved": "4"
          },
          {
            "medium": "svg",
            "objekt": {
              "soubor": "co-se-stalo-v-abertamech/pic-03-1024w.jpg",
              "duplikovat": ["svg-3"]
            },
            "spravnaOdpoved": "3"
          },
          {
            "medium": "svg",
            "objekt": {
              "soubor": "co-se-stalo-v-abertamech/pic-02-1024w.jpg",
              "duplikovat": ["svg-4"]
            },
            "spravnaOdpoved": "1"
          }
        ]
      }
    },
    {
      "class": ["half-slide-active"],
      "zadani": {
        "hlavni": "Rekonstrukce příběhu Abertam.",
        "rozsirujici": ""
      },
      "napoveda": {
        "aktivity": ["text"],
        "text": "Do boxu pro text zapisujete odpověď na otázku, nebo jiný komentář (dle zadání)."
      },
      "uzivatelskyText": {
        "otazky": [
          {
            "id": "text-2",
            "zadani": "Popište události, které mohly zapříčinit proměny místa, a vytvořte tak příběh obce.",
            "instrukce": "Příběh Abertam...",
            "minDelka": 10,
            "maxDelka": 600,
            "vyska": 10
          }
        ]
      }
    }
  ]
}
